{"modalidade": [
  {
    "value":"",
    "name":"Selecione"
  },
  {
    "value":"Adesao",
    "name":"01"
  },
  {
    "value":"2 Vidas | Pme",
    "name":"02"
  },
  {
    "value":"3 Vidas | Pme",
    "name":"03"
  },
  {
    "value":"4 Vidas | Pme",
    "name":"04"
  },
  {
    "value":"5 Vidas | Pme",
    "name":"05"
  },
  {
    "value":"6 Vidas | Pme",
    "name":"06"
  },
  {
    "value":"7 Vidas | Pme",
    "name":"07"
  },
  {
    "value":"8 Vidas | Pme",
    "name":"08"
  },
  {
    "value":"9 Vidas | Pme",
    "name":"09"
  },
  {
    "value":"10 Vidas | Pme",
    "name":"10"
  },
  {
    "value":"11 Vidas | Pme",
    "name":"11"
  },
  {
    "value":"12 Vidas | Pme",
    "name":"12"
  },
  {
    "value":"13 Vidas | Pme",
    "name":"13"
  },
  {
    "value":"14 Vidas | Pme",
    "name":"14"
  },
  {
    "value":"15 Vidas | Pme",
    "name":"15"
  },
  {
    "value":"16 Vidas | Pme",
    "name":"16"
  },
  {
    "value":"17 Vidas | Pme",
    "name":"17"
  },
  {
    "value":"18 Vidas | Pme",
    "name":"18"
  },
  {
    "value":"19 Vidas | Pme",
    "name":"19"
  },
  {
    "value":"20 Vidas | Pme",
    "name":"20"
  },
  {
    "value":"21 Vidas | Pme",
    "name":"21"
  },
  {
    "value":"22 Vidas | Pme",
    "name":"22"
  },
  {
    "value":"23 Vidas | Pme",
    "name":"23"
  },
  {
    "value":"24 Vidas | Pme",
    "name":"24"
  },
  {
    "value":"25 Vidas | Pme",
    "name":"25"
  },
  {
    "value":"26 Vidas | Pme",
    "name":"26"
  },
  {
    "value":"27 Vidas | Pme",
    "name":"27"
  },
  {
    "value":"28 Vidas | Pme",
    "name":"28"
  },
  {
    "value":"29 Vidas | Pme",
    "name":"29"
  },
  {
    "value":"30 Vidas | Pme",
    "name":"30"
  },
  {
    "value":"31 Vidas | Pme",
    "name":"31"
  },
  {
    "value":"32 Vidas | Pme",
    "name":"32"
  },
  {
    "value":"33 Vidas | Pme",
    "name":"33"
  },
  {
    "value":"34 Vidas | Pme",
    "name":"34"
  },
  {
    "value":"35 Vidas | Pme",
    "name":"35"
  },
  {
    "value":"36 Vidas | Pme",
    "name":"36"
  },
  {
    "value":"37 Vidas | Pme",
    "name":"37"
  },
  {
    "value":"38 Vidas | Pme",
    "name":"38"
  },
  {
    "value":"39 Vidas | Pme",
    "name":"39"
  },
  {
    "value":"40 Vidas | Pme",
    "name":"40"
  },
  {
    "value":"41 Vidas | Pme",
    "name":"41"
  },
  {
    "value":"42 Vidas | Pme",
    "name":"42"
  },
  {
    "value":"43 Vidas | Pme",
    "name":"43"
  },
  {
    "value":"44 Vidas | Pme",
    "name":"44"
  },
  {
    "value":"45 Vidas | Pme",
    "name":"45"
  },
  {
    "value":"46 Vidas | Pme",
    "name":"46"
  },
  {
    "value":"47 Vidas | Pme",
    "name":"47"
  },
  {
    "value":"48 Vidas | Pme",
    "name":"48"
  },
  {
    "value":"49 Vidas | Pme",
    "name":"49"
  },
  {
    "value":"50 Vidas | Pme",
    "name":"50"
  },
  {
    "value":"51 Vidas | Pme",
    "name":"51"
  },
  {
    "value":"52 Vidas | Pme",
    "name":"52"
  },
  {
    "value":"53 Vidas | Pme",
    "name":"53"
  },
  {
    "value":"54 Vidas | Pme",
    "name":"54"
  },
  {
    "value":"55 Vidas | Pme",
    "name":"55"
  },
  {
    "value":"56 Vidas | Pme",
    "name":"56"
  },
  {
    "value":"57 Vidas | Pme",
    "name":"57"
  },
  {
    "value":"58 Vidas | Pme",
    "name":"58"
  },
  {
    "value":"59 Vidas | Pme",
    "name":"59"
  },
  {
    "value":"60 Vidas | Pme",
    "name":"60"
  },
  {
    "value":"61 Vidas | Pme",
    "name":"61"
  },
  {
    "value":"62 Vidas | Pme",
    "name":"62"
  },
  {
    "value":"63 Vidas | Pme",
    "name":"63"
  },
  {
    "value":"64 Vidas | Pme",
    "name":"64"
  },
  {
    "value":"65 Vidas | Pme",
    "name":"65"
  },
  {
    "value":"66 Vidas | Pme",
    "name":"66"
  },
  {
    "value":"67 Vidas | Pme",
    "name":"67"
  },
  {
    "value":"68 Vidas | Pme",
    "name":"68"
  },
  {
    "value":"69 Vidas | Pme",
    "name":"69"
  },
  {
    "value":"70 Vidas | Pme",
    "name":"70"
  },
  {
    "value":"71 Vidas | Pme",
    "name":"71"
  },
  {
    "value":"72 Vidas | Pme",
    "name":"72"
  },
  {
    "value":"73 Vidas | Pme",
    "name":"73"
  },
  {
    "value":"74 Vidas | Pme",
    "name":"74"
  },
  {
    "value":"75 Vidas | Pme",
    "name":"75"
  },
  {
    "value":"76 Vidas | Pme",
    "name":"76"
  },
  {
    "value":"77 Vidas | Pme",
    "name":"77"
  },
  {
    "value":"78 Vidas | Pme",
    "name":"78"
  },
  {
    "value":"79 Vidas | Pme",
    "name":"79"
  },
  {
    "value":"80 Vidas | Pme",
    "name":"80"
  },
  {
    "value":"81 Vidas | Pme",
    "name":"81"
  },
  {
    "value":"82 Vidas | Pme",
    "name":"82"
  },
  {
    "value":"83 Vidas | Pme",
    "name":"83"
  },
  {
    "value":"84 Vidas | Pme",
    "name":"84"
  },
  {
    "value":"85 Vidas | Pme",
    "name":"85"
  },
  {
    "value":"86 Vidas | Pme",
    "name":"86"
  },
  {
    "value":"87 Vidas | Pme",
    "name":"87"
  },
  {
    "value":"88 Vidas | Pme",
    "name":"88"
  },
  {
    "value":"89 Vidas | Pme",
    "name":"89"
  },
  {
    "value":"90 Vidas | Pme",
    "name":"90"
  },
  {
    "value":"91 Vidas | Pme",
    "name":"91"
  },
  {
    "value":"92 Vidas | Pme",
    "name":"92"
  },
  {
    "value":"93 Vidas | Pme",
    "name":"93"
  },
  {
    "value":"94 Vidas | Pme",
    "name":"94"
  },
  {
    "value":"95 Vidas | Pme",
    "name":"95"
  },
  {
    "value":"96 Vidas | Pme",
    "name":"96"
  },
  {
    "value":"97 Vidas | Pme",
    "name":"97"
  },
  {
    "value":"98 Vidas | Pme",
    "name":"98"
  },
  {
    "value":"99 Vidas | Pme",
    "name":"99"
  },
  {
    "value":"100 Vidas | Pme",
    "name":"100"
  },
  {
    "value":"100+ Vidas | Pme",
    "name":"100+"
  }

]}